Limpieza y análisis de datos
…
2.4 Análisis de los datos.

2.4.1 Selección de los grupos de datos que se quieren analizar/comparar.

# Selección de los grupos
select(dataset, `fixed acidity`, quality)

## # A tibble: 1,599 x 2
##    `fixed acidity` quality
##              <dbl>   <dbl>
##  1             7.4       5
##  2             7.8       5
##  3             7.8       5
##  4            11.2       6
##  5             7.4       5
##  6             7.4       5
##  7             7.9       5
##  8             7.3       7
##  9             7.8       7
## 10             7.5       5
## # ... with 1,589 more rows

select(dataset, `volatile acidity`, quality)

## # A tibble: 1,599 x 2
##    `volatile acidity` quality
##                 <dbl>   <dbl>
##  1              0.7         5
##  2              0.528       5
##  3              0.76        5
##  4              0.28        6
##  5              0.7         5
##  6              0.66        5
##  7              0.6         5
##  8              0.65        7
##  9              0.580       7
## 10              0.5         5
## # ... with 1,589 more rows

select(dataset, `citric acid`, quality)

## # A tibble: 1,599 x 2
##    `citric acid` quality
##            <dbl>   <dbl>
##  1          0          5
##  2          0          5
##  3          0.04       5
##  4          0.56       6
##  5          0          5
##  6          0          5
##  7          0.06       5
##  8          0          7
##  9          0.02       7
## 10          0.36       5
## # ... with 1,589 more rows

select(dataset, `residual sugar`, quality)

## # A tibble: 1,599 x 2
##    `residual sugar` quality
##               <dbl>   <dbl>
##  1             1.9        5
##  2             2.6        5
##  3             2.3        5
##  4             1.9        6
##  5             1.9        5
##  6             1.8        5
##  7             1.6        5
##  8             2.54       7
##  9             2          7
## 10             2.2        5
## # ... with 1,589 more rows

select(dataset, chlorides, quality)

## # A tibble: 1,599 x 2
##    chlorides quality
##        <dbl>   <dbl>
##  1     0.076       5
##  2     0.098       5
##  3     0.092       5
##  4     0.075       6
##  5     0.076       5
##  6     0.075       5
##  7     0.069       5
##  8     0.065       7
##  9     0.073       7
## 10     0.071       5
## # ... with 1,589 more rows

select(dataset, `free sulfur dioxide`, quality)

## # A tibble: 1,599 x 2
##    `free sulfur dioxide` quality
##                    <dbl>   <dbl>
##  1                    11       5
##  2                    25       5
##  3                    15       5
##  4                    17       6
##  5                    11       5
##  6                    13       5
##  7                    15       5
##  8                    15       7
##  9                     9       7
## 10                    17       5
## # ... with 1,589 more rows

select(dataset, `total sulfur dioxide`, quality)

## # A tibble: 1,599 x 2
##    `total sulfur dioxide` quality
##                     <dbl>   <dbl>
##  1                     34       5
##  2                     67       5
##  3                     54       5
##  4                     60       6
##  5                     34       5
##  6                     40       5
##  7                     59       5
##  8                     21       7
##  9                     18       7
## 10                    102       5
## # ... with 1,589 more rows

select(dataset, density, quality)

## # A tibble: 1,599 x 2
##    density quality
##      <dbl>   <dbl>
##  1   0.998       5
##  2   0.997       5
##  3   0.997       5
##  4   0.998       6
##  5   0.998       5
##  6   0.998       5
##  7   0.996       5
##  8   0.995       7
##  9   0.997       7
## 10   0.998       5
## # ... with 1,589 more rows

select(dataset, pH, quality)

## # A tibble: 1,599 x 2
##       pH quality
##    <dbl>   <dbl>
##  1  3.51       5
##  2  3.2        5
##  3  3.26       5
##  4  3.16       6
##  5  3.51       5
##  6  3.51       5
##  7  3.3        5
##  8  3.39       7
##  9  3.36       7
## 10  3.35       5
## # ... with 1,589 more rows

select(dataset, sulphates, quality)

## # A tibble: 1,599 x 2
##    sulphates quality
##        <dbl>   <dbl>
##  1     0.56        5
##  2     0.68        5
##  3     0.65        5
##  4     0.580       6
##  5     0.56        5
##  6     0.56        5
##  7     0.66        5
##  8     0.47        7
##  9     0.570       7
## 10     0.8         5
## # ... with 1,589 more rows

select(dataset, alcohol, quality)

## # A tibble: 1,599 x 2
##    alcohol quality
##      <dbl>   <dbl>
##  1     9.4       5
##  2     9.8       5
##  3     9.8       5
##  4     9.8       6
##  5     9.4       5
##  6     9.4       5
##  7     9.4       5
##  8    10         7
##  9     9.5       7
## 10    10.5       5
## # ... with 1,589 more rows
…
